{
  "images" : [
    {
      "idiom" : "iphone",
      "scale" : "1x",
      "filename" : "adult.png"
    },
    {
      "idiom" : "iphone",
      "scale" : "2x",
      "filename" : "adult@2x.png"
    },
    {
      "idiom" : "iphone",
      "filename" : "adult iPhone5.png",
      "subtype" : "retina4",
      "scale" : "2x"
    },
    {
      "idiom" : "iphone",
      "scale" : "3x",
      "filename" : "adult iPhone6+.png"
    },
    {
      "idiom" : "ipad",
      "scale" : "1x"
    },
    {
      "idiom" : "ipad",
      "scale" : "2x"
    }
  ],
  "info" : {
    "version" : 1,
    "author" : "xcode"
  }
}