{
  "images" : [
    {
      "idiom" : "iphone",
      "scale" : "1x",
      "filename" : "Arrow-icon-1.png"
    },
    {
      "idiom" : "iphone",
      "scale" : "2x",
      "filename" : "Arrow-icon-1@2x .png"
    },
    {
      "idiom" : "iphone",
      "filename" : "Arrow-icon-5@2x.png",
      "subtype" : "retina4",
      "scale" : "2x"
    },
    {
      "idiom" : "iphone",
      "scale" : "3x",
      "filename" : "Arrow-icon-1@3x.png"
    },
    {
      "idiom" : "ipad",
      "scale" : "1x"
    },
    {
      "idiom" : "ipad",
      "scale" : "2x"
    }
  ],
  "info" : {
    "version" : 1,
    "author" : "xcode"
  }
}