{
  "images" : [
    {
      "idiom" : "iphone",
      "scale" : "1x",
      "filename" : "add_image Iphone6.png"
    },
    {
      "idiom" : "iphone",
      "scale" : "2x",
      "filename" : "add_image iphone6@2x.png"
    },
    {
      "idiom" : "iphone",
      "filename" : "add_image iphone5.png",
      "subtype" : "retina4",
      "scale" : "2x"
    },
    {
      "idiom" : "iphone",
      "scale" : "3x",
      "filename" : "add_image iphone 6+.png"
    },
    {
      "idiom" : "ipad",
      "scale" : "1x"
    },
    {
      "idiom" : "ipad",
      "scale" : "2x"
    }
  ],
  "info" : {
    "version" : 1,
    "author" : "xcode"
  }
}